Coin dropdown nr: 3
Take profit limit: 0.6
acktest Result
Max profit: 4.46 %
Strategy: Profit Scalping PREMIUM - DEX
Stop-loss: Disabled
Trailing stop-loss: Disabled
Trailing stop-buy: Disabled
Succesful sells: 60 (100.00 %)
Sells with loss: 0 (0.00 %)
Average holding time: 2 hour(s)
Date found: 06/05/2021 4:12:03 PM
-----
Coin dropdown nr: 4
Take profit limit: 0.6
acktest Result
Max profit: 5.06 %
Strategy: Profit Scalping PREMIUM - DEX
Stop-loss: Disabled
Trailing stop-loss: Disabled
Trailing stop-buy: Disabled
Succesful sells: 99 (100.00 %)
Sells with loss: 0 (0.00 %)
Average holding time: 1 hour(s)
Date found: 06/05/2021 4:17:26 PM
-----
Coin dropdown nr: 5
Take profit limit: 0.6
acktest Result
Max profit: 3.78 %
Strategy: Profit Scalping PREMIUM - DEX
Stop-loss: Disabled
Trailing stop-loss: Disabled
Trailing stop-buy: Disabled
Succesful sells: 49 (100.00 %)
Sells with loss: 0 (0.00 %)
Average holding time: 1 hour(s)
Date found: 06/05/2021 4:22:46 PM
-----
Coin dropdown nr: 6
Take profit limit: 0.6
Jun 02
Jun 03
Jun 04
1.50
1.55
1.60
1.65
1.70
1.75
1.80
1.85
1.90
1.95
Backtest trades
Type	Rate	Date	Result
Sell	1.84961000	06/04/2021 2:10:00 AM	0.84%
Sell	1.84444000	06/04/2021 2:05:00 AM	0.64%
Sell	1.84000000	06/04/2021 2:00:00 AM	0.81%
Sell	1.84000000	06/04/2021 2:00:00 AM	0.78%
Sell	1.83110000	06/04/2021 1:55:00 AM	1.01%
Sell	1.83110000	06/04/2021 1:55:00 AM	0.83%
Sell	1.83110000	06/04/2021 1:55:00 AM	0.78%
Sell	1.83110000	06/04/2021 1:55:00 AM	0.97%
Sell	1.82000000	06/03/2021 7:30:00 PM	0.61%
Buy	1.80889000	06/03/2021 4:35:00 PM	-
Buy	1.81278000	06/03/2021 4:30:00 PM	-
Buy	1.81603000	06/03/2021 4:25:00 PM	-
Buy	1.81685000	06/03/2021 4:20:00 PM	-
Buy	1.81345000	06/03/2021 4:15:00 PM	-
Buy	1.82519000	06/03/2021 4:10:00 PM	-
Buy	1.83272000	06/03/2021 4:05:00 PM	-
Buy	1.83429000	06/03/2021 4:00:00 PM	-
Sell	1.83664000	06/03/2021 4:00:00 PM	0.89%
Sell	1.82459000	06/03/2021 3:25:00 PM	0.63%
Sell	1.82459000	06/03/2021 3:25:00 PM	0.64%
Sell	1.82018000	06/03/2021 3:15:00 PM	0.61%
Buy	1.80922000	06/03/2021 3:10:00 PM	-
Sell	1.81680000	06/03/2021 3:05:00 PM	0.68%
Buy	1.80461000	06/03/2021 3:00:00 PM	-
Buy	1.81313000	06/03/2021 2:55:00 PM	-
Buy	1.81301000	06/03/2021 2:50:00 PM	-
Sell	1.82122000	06/03/2021 2:25:00 PM	0.64%
Buy	1.80965000	06/03/2021 2:20:00 PM	-
Buy	1.82042000	06/03/2021 2:15:00 PM	-
Buy	1.82583000	06/03/2021 2:05:00 PM	-
Sell	1.87800000	06/03/2021 12:55:00 PM	2.50%
Sell	1.87800000	06/03/2021 12:55:00 PM	2.40%
Sell	1.87800000	06/03/2021 12:55:00 PM	2.59%
Sell	1.87800000	06/03/2021 12:55:00 PM	2.47%
Sell	1.87800000	06/03/2021 12:55:00 PM	2.40%
Sell	1.87800000	06/03/2021 12:55:00 PM	2.40%
Sell	1.87800000	06/03/2021 12:55:00 PM	1.90%
Sell	1.87800000	06/03/2021 12:55:00 PM	1.56%
Buy	1.83214000	06/03/2021 12:25:00 PM	-
Buy	1.83393000	06/03/2021 12:20:00 PM	-
Buy	1.83064000	06/03/2021 12:15:00 PM	-
Buy	1.83273000	06/03/2021 12:10:00 PM	-
Sell	1.83790000	06/03/2021 12:10:00 PM	0.71%
Sell	1.83790000	06/03/2021 12:10:00 PM	0.75%
Sell	1.83790000	06/03/2021 12:10:00 PM	1.03%
Sell	1.83790000	06/03/2021 12:10:00 PM	0.73%
Sell	1.83790000	06/03/2021 12:10:00 PM	0.61%
Buy	1.82494000	06/03/2021 12:05:00 PM	-
Sell	1.82688000	06/03/2021 12:05:00 PM	0.61%
Buy	1.82414000	06/03/2021 12:00:00 PM	-
Sell	1.82612000	06/03/2021 11:20:00 AM	0.75%
Sell	1.82612000	06/03/2021 11:20:00 AM	0.64%
Sell	1.82612000	06/03/2021 11:20:00 AM	0.62%
Buy	1.81259000	06/03/2021 10:50:00 AM	-
Buy	1.81453000	06/03/2021 10:35:00 AM	-
Buy	1.81574000	06/03/2021 10:25:00 AM	-
Buy	1.81492000	06/03/2021 10:20:00 AM	-
Buy	1.81917000	06/03/2021 10:10:00 AM	-
Buy	1.82452000	06/03/2021 10:05:00 AM	-
Buy	1.82679000	06/03/2021 10:00:00 AM	-
Sell	1.84430000	06/03/2021 8:50:00 AM	0.95%
Sell	1.84430000	06/03/2021 8:50:00 AM	0.86%
Sell	1.84430000	06/03/2021 8:50:00 AM	0.80%
Sell	1.84430000	06/03/2021 8:50:00 AM	0.90%
Sell	1.84430000	06/03/2021 8:50:00 AM	0.95%
Sell	1.84430000	06/03/2021 8:50:00 AM	0.79%
Sell	1.84430000	06/03/2021 8:50:00 AM	0.71%
Sell	1.84430000	06/03/2021 8:50:00 AM	0.61%
Sell	1.83500000	06/02/2021 11:00:00 PM	0.61%
Buy	1.83392000	06/02/2021 10:55:00 PM	-
Buy	1.82687000	06/02/2021 10:50:00 PM	-
Buy	1.82857000	06/02/2021 10:45:00 PM	-
Buy	1.82960000	06/02/2021 10:40:00 PM	-
Buy	1.82792000	06/02/2021 10:35:00 PM	-
Sell	1.83199000	06/02/2021 10:35:00 PM	0.82%
Buy	1.82701000	06/02/2021 10:30:00 PM	-
Sell	1.82758000	06/02/2021 10:30:00 PM	0.71%
Buy	1.81464000	06/02/2021 10:05:00 PM	-
Buy	1.81716000	06/02/2021 10:00:00 PM	-
Sell	1.82866000	06/02/2021 9:40:00 PM	0.69%
Buy	1.81610000	06/02/2021 9:15:00 PM	-
Buy	1.82386000	06/02/2021 9:10:00 PM	-
Sell	1.83942000	06/02/2021 8:35:00 PM	0.63%
Sell	1.83887000	06/02/2021 8:30:00 PM	0.62%
Buy	1.82760000	06/02/2021 8:20:00 PM	-
Buy	1.82794000	06/02/2021 8:10:00 PM	-
Buy	1.82990000	06/02/2021 8:05:00 PM	-
Sell	1.84000000	06/02/2021 7:55:00 PM	0.70%
Sell	1.84000000	06/02/2021 7:55:00 PM	0.99%
Buy	1.82720000	06/02/2021 7:50:00 PM	-
Buy	1.82200000	06/02/2021 7:45:00 PM	-
Buy	1.83131000	06/02/2021 7:40:00 PM	-
Buy	1.83407000	06/02/2021 7:35:00 PM	-
Buy	1.83310000	06/02/2021 7:30:00 PM	-
Buy	1.84300000	06/02/2021 7:25:00 PM	-
Buy	1.84914000	06/02/2021 7:20:00 PM	-
Sell	1.85962000	06/02/2021 6:00:00 PM	1.07%
Sell	1.85962000	06/02/2021 6:00:00 PM	1.36%
Sell	1.85962000	06/02/2021 6:00:00 PM	1.19%
Sell	1.85962000	06/02/2021 6:00:00 PM	1.03%
Sell	1.85962000	06/02/2021 6:00:00 PM	0.91%
Sell	1.85962000	06/02/2021 6:00:00 PM	1.18%
Buy	1.83997000	06/02/2021 5:55:00 PM	-
Buy	1.83465000	06/02/2021 5:50:00 PM	-
Buy	1.83774000	06/02/2021 5:45:00 PM	-
Buy	1.84075000	06/02/2021 5:40:00 PM	-
Sell	1.84335000	06/02/2021 5:40:00 PM	0.69%
Buy	1.83077000	06/02/2021 5:35:00 PM	-
Sell	1.83200000	06/02/2021 5:35:00 PM	0.69%
Sell	1.83200000	06/02/2021 5:35:00 PM	0.88%
Sell	1.83200000	06/02/2021 5:35:00 PM	0.90%
Buy	1.81949000	06/02/2021 5:30:00 PM	-
Sell	1.82408000	06/02/2021 5:25:00 PM	0.75%
Sell	1.82408000	06/02/2021 5:25:00 PM	0.66%
Sell	1.82408000	06/02/2021 5:25:00 PM	0.71%
Sell	1.82000000	06/02/2021 4:30:00 PM	1.00%
Sell	1.82000000	06/02/2021 4:30:00 PM	0.88%
Sell	1.82000000	06/02/2021 4:30:00 PM	0.85%
Sell	1.82000000	06/02/2021 4:30:00 PM	0.71%
Sell	1.80676000	06/02/2021 4:25:00 PM	0.89%
Buy	1.79085000	06/02/2021 4:05:00 PM	-
Sell	1.80544000	06/02/2021 2:40:00 PM	0.93%
Sell	1.80544000	06/02/2021 2:40:00 PM	0.88%
Buy	1.78886000	06/02/2021 2:10:00 PM	-
Buy	1.78967000	06/02/2021 2:05:00 PM	-
Buy	1.80200000	06/02/2021 2:00:00 PM	-
Buy	1.81043000	06/02/2021 1:55:00 PM	-
Buy	1.80420000	06/02/2021 1:50:00 PM	-
Buy	1.80464000	06/02/2021 1:45:00 PM	-
Buy	1.80722000	06/02/2021 1:40:00 PM	-
Buy	1.81214000	06/02/2021 1:35:00 PM	-
Buy	1.81601000	06/02/2021 1:25:00 PM	-
Buy	1.81118000	06/02/2021 1:20:00 PM	-
Buy	1.81568000	06/02/2021 1:15:00 PM	-
Sell	1.84855000	06/02/2021 12:35:00 PM	0.83%
Sell	1.84855000	06/02/2021 12:35:00 PM	0.63%
Buy	1.84286000	06/02/2021 12:25:00 PM	-
Sell	1.84353000	06/02/2021 12:25:00 PM	0.71%
Buy	1.83054000	06/02/2021 12:20:00 PM	-
Buy	1.83329000	06/02/2021 12:15:00 PM	-
Buy	1.83700000	06/02/2021 12:10:00 PM	-
Buy	1.83797000	06/02/2021 12:05:00 PM	-
Sell	1.84800000	06/02/2021 12:05:00 PM	1.41%
Buy	1.82224000	06/02/2021 12:00:00 PM	-
Sell	1.81800000	06/02/2021 11:40:00 AM	0.68%
Sell	1.81800000	06/02/2021 11:40:00 AM	0.61%
Buy	1.80578000	06/02/2021 11:25:00 AM	-
Buy	1.80693000	06/02/2021 11:20:00 AM	-
Sell	1.82347000	06/02/2021 10:15:00 AM	1.14%
Sell	1.82347000	06/02/2021 10:15:00 AM	0.85%
Buy	1.80286000	06/02/2021 10:05:00 AM	-
Buy	1.80816000	06/02/2021 10:00:00 AM	-

-----
